Final_Draft
…
group <- import(here("data", "cohorts_rate.xlsx"))

group.m1 <- group %>% 
  select(stnam, state_cwd, state_lep, state_ecd)

group.m11 <- group.m1 %>% 
  pivot_longer(
    cols = starts_with("state_"), 
    names_to = "cohort",
    values_to = "rate", 
    values_drop_na = TRUE
  )
group.m11

## # A tibble: 92 x 3
##    stnam      cohort     rate
##    <chr>      <chr>     <dbl>
##  1 ALASKA     state_cwd  40.1
##  2 ALASKA     state_lep  39.5
##  3 ALASKA     state_ecd  51  
##  4 ARKANSAS   state_cwd  71.7
##  5 ARKANSAS   state_lep  70.6
##  6 ARKANSAS   state_ecd  72.9
##  7 CALIFORNIA state_cwd  67.0
##  8 CALIFORNIA state_lep  70.4
##  9 CALIFORNIA state_ecd  79.3
## 10 DELAWARE   state_cwd  52  
## # ... with 82 more rows
…
